{
   "nodes":[
      {
         "labels":[
            "landtype"
         ],
         "groups":[
            7
         ]
      },
      {
         "labels":[

         ],
         "groups":[

         ]
      },
      {
         "labels":[

         ],
         "groups":[

         ]
      },
      {
         "labels":[

         ],
         "groups":[

         ]
      },
      {
         "labels":[

         ],
         "groups":[

         ]
      },
      {
         "labels":[

         ],
         "groups":[

         ]
      },
      {
         "labels":[

         ],
         "groups":[

         ]
      },
      {
         "labels":[

         ],
         "groups":[

         ]
      },
      {
         "labels":[

         ],
         "groups":[

         ]
      },
      {
         "labels":[

         ],
         "groups":[

         ]
      },
      {
         "labels":[

         ],
         "groups":[

         ]
      },
      {
         "labels":[

         ],
         "groups":[

         ]
      },
      {
         "labels":[

         ],
         "groups":[

         ]
      },
      {
         "labels":[

         ],
         "groups":[

         ]
      },
      {
         "labels":[

         ],
         "groups":[

         ]
      },
      {
         "labels":[

         ],
         "groups":[

         ]
      },
      {
         "labels":[

         ],
         "groups":[

         ]
      },
      {
         "labels":[

         ],
         "groups":[

         ]
      },
      {
         "labels":[
            "Concept",
            "fbs"
         ],
         "groups":[
            6,
            7
         ]
      },
      {
         "labels":[

         ],
         "groups":[

         ]
      },
      {
         "labels":[

         ],
         "groups":[

         ]
      },
      {
         "labels":[

         ],
         "groups":[

         ]
      },
      {
         "labels":[

         ],
         "groups":[

         ]
      },
      {
         "labels":[

         ],
         "groups":[

         ]
      },
      {
         "labels":[

         ],
         "groups":[

         ]
      },
      {
         "labels":[

         ],
         "groups":[

         ]
      },
      {
         "labels":[

         ],
         "groups":[

         ]
      },
      {
         "labels":[

         ],
         "groups":[

         ]
      },
      {
         "labels":[

         ],
         "groups":[

         ]
      },
      {
         "labels":[

         ],
         "groups":[

         ]
      },
      {
         "labels":[

         ],
         "groups":[

         ]
      },
      {
         "labels":[

         ],
         "groups":[

         ]
      },
      {
         "labels":[

         ],
         "groups":[

         ]
      },
      {
         "labels":[

         ],
         "groups":[

         ]
      },
      {
         "labels":[

         ],
         "groups":[

         ]
      },
      {
         "labels":[

         ],
         "groups":[

         ]
      },
      {
         "labels":[

         ],
         "groups":[

         ]
      },
      {
         "labels":[

         ],
         "groups":[

         ]
      },
      {
         "labels":[

         ],
         "groups":[

         ]
      },
      {
         "labels":[

         ],
         "groups":[

         ]
      },
      {
         "labels":[

         ],
         "groups":[

         ]
      },
      {
         "labels":[
            "Concept",
            "subdivisions"
         ],
         "groups":[
            6,
            7
         ]
      },
      {
         "labels":[
            "regions"
         ],
         "groups":[
            7
         ]
      },
      {
         "labels":[

         ],
         "groups":[

         ]
      },
      {
         "labels":[

         ],
         "groups":[

         ]
      },
      {
         "labels":[

         ],
         "groups":[

         ]
      },
      {
         "labels":[

         ],
         "groups":[

         ]
      },
      {
         "labels":[

         ],
         "groups":[

         ]
      },
      {
         "labels":[

         ],
         "groups":[

         ]
      },
      {
         "labels":[

         ],
         "groups":[

         ]
      },
      {
         "labels":[

         ],
         "groups":[

         ]
      },
      {
         "labels":[
            "incident"
         ],
         "groups":[
            7
         ]
      },
      {
         "labels":[

         ],
         "groups":[

         ]
      },
      {
         "labels":[

         ],
         "groups":[

         ]
      },
      {
         "labels":[

         ],
         "groups":[

         ]
      },
      {
         "labels":[

         ],
         "groups":[

         ]
      },
      {
         "labels":[

         ],
         "groups":[

         ]
      },
      {
         "labels":[

         ],
         "groups":[

         ]
      },
      {
         "labels":[

         ],
         "groups":[

         ]
      },
      {
         "labels":[

         ],
         "groups":[

         ]
      },
      {
         "labels":[

         ],
         "groups":[

         ]
      },
      {
         "labels":[

         ],
         "groups":[

         ]
      },
      {
         "labels":[

         ],
         "groups":[

         ]
      },
      {
         "labels":[

         ],
         "groups":[

         ]
      },
      {
         "labels":[

         ],
         "groups":[

         ]
      },
      {
         "labels":[

         ],
         "groups":[

         ]
      },
      {
         "labels":[

         ],
         "groups":[

         ]
      },
      {
         "labels":[

         ],
         "groups":[

         ]
      },
      {
         "labels":[

         ],
         "groups":[

         ]
      },
      {
         "labels":[

         ],
         "groups":[

         ]
      },
      {
         "labels":[

         ],
         "groups":[

         ]
      },
      {
         "labels":[

         ],
         "groups":[

         ]
      },
      {
         "labels":[

         ],
         "groups":[

         ]
      },
      {
         "labels":[

         ],
         "groups":[

         ]
      },
      {
         "labels":[

         ],
         "groups":[

         ]
      },
      {
         "labels":[

         ],
         "groups":[

         ]
      },
      {
         "labels":[

         ],
         "groups":[

         ]
      },
      {
         "labels":[

         ],
         "groups":[

         ]
      },
      {
         "labels":[

         ],
         "groups":[

         ]
      },
      {
         "labels":[

         ],
         "groups":[

         ]
      },
      {
         "labels":[

         ],
         "groups":[

         ]
      },
      {
         "labels":[

         ],
         "groups":[

         ]
      },
      {
         "labels":[

         ],
         "groups":[

         ]
      },
      {
         "labels":[

         ],
         "groups":[

         ]
      },
      {
         "labels":[

         ],
         "groups":[

         ]
      }
   ],
   "links":[
      {
         "source":0,
         "target":1,
         "group":7,
         "label":"landtype_TYPE_CROP_REMNANT"
      },
      {
         "source":0,
         "target":2,
         "group":7,
         "label":"landtype_TYPE_DUMP_AREA"
      },
      {
         "source":0,
         "target":3,
         "group":7,
         "label":"landtype_TYPE_GROVE"
      },
      {
         "source":0,
         "target":4,
         "group":7,
         "label":"landtype_TYPE_SWAMP"
      },
      {
         "source":0,
         "target":5,
         "group":7,
         "label":"landtype_ACRES_GROVE"
      },
      {
         "source":0,
         "target":6,
         "group":7,
         "label":"landtype_TYPE_AGRICULTURAL"
      },
      {
         "source":0,
         "target":7,
         "group":7,
         "label":"landtype_TYPE_GRASSLAND"
      },
      {
         "source":0,
         "target":8,
         "group":7,
         "label":"landtype_TYPE_WOODLAND"
      },
      {
         "source":0,
         "target":9,
         "group":7,
         "label":"landtype_ACRES_CROP_REMNANT"
      },
      {
         "source":0,
         "target":10,
         "group":7,
         "label":"landtype_TYPE_FOREST"
      },
      {
         "source":0,
         "target":11,
         "group":7,
         "label":"landtype_CODE_LAND_TYPE"
      },
      {
         "source":0,
         "target":12,
         "group":7,
         "label":"landtype_ACRES_GRASSLAND"
      },
      {
         "source":0,
         "target":13,
         "group":7,
         "label":"landtype_ACRES_SWAMP"
      },
      {
         "source":0,
         "target":14,
         "group":7,
         "label":"landtype_ACRES_WOODLAND"
      },
      {
         "source":0,
         "target":15,
         "group":7,
         "label":"landtype_ACRES_AGRICULTURAL"
      },
      {
         "source":0,
         "target":16,
         "group":7,
         "label":"landtype_ACRES_FOREST"
      },
      {
         "source":0,
         "target":17,
         "group":7,
         "label":"landtype_ACRES_DUMP_AREA"
      },
      {
         "source":18,
         "target":19,
         "group":6,
         "label":"prefLabel"
      },
      {
         "source":18,
         "target":20,
         "group":7,
         "label":"fbs_ADDRESS"
      },
      {
         "source":18,
         "target":21,
         "group":4,
         "label":"address-street"
      },
      {
         "source":18,
         "target":22,
         "group":8,
         "label":"based_near"
      },
      {
         "source":18,
         "target":23,
         "group":7,
         "label":"fbs_CODE_FBS"
      },
      {
         "source":18,
         "target":24,
         "group":6,
         "label":"altLabel"
      },
      {
         "source":18,
         "target":25,
         "group":8,
         "label":"depiction"
      },
      {
         "source":18,
         "target":26,
         "group":6,
         "label":"hasTopConcept"
      },
      {
         "source":18,
         "target":27,
         "group":7,
         "label":"subdivisions"
      },
      {
         "source":18,
         "target":28,
         "group":7,
         "label":"fbs_FBSNAME_GR"
      },
      {
         "source":18,
         "target":29,
         "group":7,
         "label":"fbs_POSTCODE"
      },
      {
         "source":18,
         "target":30,
         "group":0,
         "label":"coverage"
      },
      {
         "source":18,
         "target":31,
         "group":2,
         "label":"lat"
      },
      {
         "source":18,
         "target":32,
         "group":7,
         "label":"fbs_FBSNAME"
      },
      {
         "source":18,
         "target":33,
         "group":7,
         "label":"fbs_FBSLABEL_GR"
      },
      {
         "source":18,
         "target":34,
         "group":8,
         "label":"homepage"
      },
      {
         "source":18,
         "target":35,
         "group":7,
         "label":"fbs_PREFECTURE"
      },
      {
         "source":18,
         "target":36,
         "group":4,
         "label":"address-postcode"
      },
      {
         "source":18,
         "target":37,
         "group":8,
         "label":"isPrimaryTopicOf"
      },
      {
         "source":18,
         "target":38,
         "group":2,
         "label":"long"
      },
      {
         "source":18,
         "target":39,
         "group":6,
         "label":"inScheme"
      },
      {
         "source":18,
         "target":40,
         "group":7,
         "label":"fbs_FBSLABEL"
      },
      {
         "source":18,
         "target":41,
         "group":6,
         "label":"narrower"
      },
      {
         "source":18,
         "target":42,
         "group":7,
         "label":"regions"
      },
      {
         "source":41,
         "target":43,
         "group":2,
         "label":"long"
      },
      {
         "source":41,
         "target":44,
         "group":8,
         "label":"depiction"
      },
      {
         "source":41,
         "target":45,
         "group":6,
         "label":"inScheme"
      },
      {
         "source":41,
         "target":46,
         "group":4,
         "label":"address-street"
      },
      {
         "source":41,
         "target":18,
         "group":6,
         "label":"broader"
      },
      {
         "source":41,
         "target":47,
         "group":7,
         "label":"subdivisions_AA"
      },
      {
         "source":41,
         "target":48,
         "group":7,
         "label":"subdivisions_SUBADDRESS"
      },
      {
         "source":41,
         "target":49,
         "group":6,
         "label":"altLabel"
      },
      {
         "source":41,
         "target":50,
         "group":6,
         "label":"prefLabel"
      },
      {
         "source":41,
         "target":51,
         "group":7,
         "label":"incident"
      },
      {
         "source":41,
         "target":52,
         "group":7,
         "label":"subdivisions_CODE_SUB_FBS"
      },
      {
         "source":41,
         "target":53,
         "group":7,
         "label":"subdivisions_SUBNAME"
      },
      {
         "source":41,
         "target":54,
         "group":7,
         "label":"subdivisions_SUBLABEL_GR"
      },
      {
         "source":41,
         "target":55,
         "group":7,
         "label":"subdivisions_SUBNAME_GR"
      },
      {
         "source":41,
         "target":56,
         "group":4,
         "label":"address-postcode"
      },
      {
         "source":41,
         "target":57,
         "group":7,
         "label":"subdivisions_SUBPOSTCODE"
      },
      {
         "source":41,
         "target":58,
         "group":8,
         "label":"based_near"
      },
      {
         "source":41,
         "target":59,
         "group":7,
         "label":"subdivisions_CODE_FBS"
      },
      {
         "source":41,
         "target":60,
         "group":2,
         "label":"lat"
      },
      {
         "source":51,
         "target":61,
         "group":7,
         "label":"incident_EVENT_END"
      },
      {
         "source":51,
         "target":62,
         "group":7,
         "label":"incident_TOTAL_ACRES"
      },
      {
         "source":51,
         "target":63,
         "group":0,
         "label":"coverage"
      },
      {
         "source":51,
         "target":64,
         "group":5,
         "label":"beginsAtDateTime"
      },
      {
         "source":51,
         "target":65,
         "group":7,
         "label":"incident_FORESTRY"
      },
      {
         "source":51,
         "target":66,
         "group":7,
         "label":"incident_MUNICIPALITY"
      },
      {
         "source":51,
         "target":67,
         "group":7,
         "label":"incident_EVENT_START"
      },
      {
         "source":51,
         "target":68,
         "group":7,
         "label":"incident_CODE_INCIDENT"
      },
      {
         "source":51,
         "target":69,
         "group":8,
         "label":"based_near"
      },
      {
         "source":51,
         "target":70,
         "group":5,
         "label":"durationInt"
      },
      {
         "source":51,
         "target":71,
         "group":7,
         "label":"incident_EXTINCTION_M"
      },
      {
         "source":51,
         "target":0,
         "group":7,
         "label":"landtype"
      },
      {
         "source":51,
         "target":72,
         "group":7,
         "label":"incident_INCIDENT_PREFECTURE"
      },
      {
         "source":51,
         "target":73,
         "group":5,
         "label":"endsAtDateTime"
      },
      {
         "source":51,
         "target":74,
         "group":1,
         "label":"incidentLocation"
      },
      {
         "source":51,
         "target":75,
         "group":7,
         "label":"incident_EXTINCTION"
      },
      {
         "source":42,
         "target":76,
         "group":8,
         "label":"homepage"
      },
      {
         "source":42,
         "target":77,
         "group":7,
         "label":"regions_REG_NAME"
      },
      {
         "source":42,
         "target":78,
         "group":7,
         "label":"regions_NUTS_CODES"
      },
      {
         "source":42,
         "target":79,
         "group":8,
         "label":"depiction"
      },
      {
         "source":42,
         "target":80,
         "group":7,
         "label":"regions_3166_CODES"
      },
      {
         "source":42,
         "target":81,
         "group":6,
         "label":"altLabel"
      },
      {
         "source":42,
         "target":82,
         "group":0,
         "label":"coverage"
      },
      {
         "source":42,
         "target":83,
         "group":6,
         "label":"prefLabel"
      },
      {
         "source":42,
         "target":84,
         "group":7,
         "label":"regions_REG_CODE"
      }
   ]
}
