{
   "nodes":[
      {
         "labels":[
            "Departement"
         ],
         "groups":[
            1
         ],
         "prop":""
      },
      {
         "labels":[
            "Region"
         ],
         "groups":[
            1
         ],
         "prop":""
      },
      {
         "labels":[
            "Arrondissement"
         ],
         "groups":[
            1
         ],
         "prop":""
      },
      {
         "labels":[
            "Commune"
         ],
         "groups":[
            1
         ],
         "prop":""
      },
      {
         "labels":[

         ],
         "groups":[

         ],
         "prop":"http://rdf.insee.fr/def/geo#nom"
      },
      {
         "labels":[

         ],
         "groups":[

         ],
         "prop":"http://rdf.insee.fr/def/geo#codeDepartement"
      },
      {
         "labels":[

         ],
         "groups":[

         ],
         "prop":"http://rdf.insee.fr/def/geo#codeINSEE"
      },
      {
         "labels":[
            "CollectiviteDOutreMer"
         ],
         "groups":[
            1
         ],
         "prop":""
      },
      {
         "labels":[
            "TerritoireFrancais"
         ],
         "groups":[
            1
         ],
         "prop":""
      },
      {
         "labels":[
            "Pays",
            "TerritoireFrancais"
         ],
         "groups":[
            1
         ],
         "prop":""
      },
      {
         "labels":[

         ],
         "groups":[

         ],
         "prop":"http://rdf.insee.fr/def/geo#codeISO"
      },
      {
         "labels":[

         ],
         "groups":[

         ],
         "prop":"http://rdf.insee.fr/def/geo#codeRegion"
      },
      {
         "labels":[
            "Canton"
         ],
         "groups":[
            1
         ],
         "prop":""
      },
      {
         "labels":[
            "ArrondissementMunicipal"
         ],
         "groups":[
            1
         ],
         "prop":""
      },
      {
         "labels":[

         ],
         "groups":[

         ],
         "prop":"http://rdf.insee.fr/def/geo#codeCommune"
      },
      {
         "labels":[

         ],
         "groups":[

         ],
         "prop":"http://rdf.insee.fr/def/geo#codeArrondissement"
      },
      {
         "labels":[
            "Pays"
         ],
         "groups":[
            1
         ],
         "prop":""
      },
      {
         "labels":[

         ],
         "groups":[

         ],
         "prop":"http://rdf.insee.fr/def/geo#codePays"
      },
      {
         "labels":[

         ],
         "groups":[

         ],
         "prop":"http://rdf.insee.fr/def/geo#codeCanton"
      }
   ],
   "links":[
      {
         "source":0,
         "target":1,
         "group":1,
         "label":"subdivisionDe",
         "uri":"http://rdf.insee.fr/def/geo#subdivisionDe"
      },
      {
         "source":0,
         "target":2,
         "group":1,
         "label":"subdivisionDirecte",
         "uri":"http://rdf.insee.fr/def/geo#subdivisionDirecte"
      },
      {
         "source":0,
         "target":3,
         "group":1,
         "label":"prefecture",
         "uri":"http://rdf.insee.fr/def/geo#prefecture"
      },
      {
         "source":0,
         "target":3,
         "group":1,
         "label":"sousPrefecture",
         "uri":"http://rdf.insee.fr/def/geo#sousPrefecture"
      },
      {
         "source":0,
         "target":4,
         "group":1,
         "label":"nom",
         "uri":"http://rdf.insee.fr/def/geo#nom"
      },
      {
         "source":0,
         "target":5,
         "group":1,
         "label":"codeDepartement",
         "uri":"http://rdf.insee.fr/def/geo#codeDepartement"
      },
      {
         "source":0,
         "target":6,
         "group":1,
         "label":"codeINSEE",
         "uri":"http://rdf.insee.fr/def/geo#codeINSEE"
      },
      {
         "source":7,
         "target":8,
         "group":1,
         "label":"subdivisionDe",
         "uri":"http://rdf.insee.fr/def/geo#subdivisionDe"
      },
      {
         "source":7,
         "target":6,
         "group":1,
         "label":"codeINSEE",
         "uri":"http://rdf.insee.fr/def/geo#codeINSEE"
      },
      {
         "source":7,
         "target":4,
         "group":1,
         "label":"nom",
         "uri":"http://rdf.insee.fr/def/geo#nom"
      },
      {
         "source":9,
         "target":8,
         "group":1,
         "label":"subdivisionDe",
         "uri":"http://rdf.insee.fr/def/geo#subdivisionDe"
      },
      {
         "source":9,
         "target":10,
         "group":1,
         "label":"codeISO",
         "uri":"http://rdf.insee.fr/def/geo#codeISO"
      },
      {
         "source":9,
         "target":1,
         "group":1,
         "label":"subdivision",
         "uri":"http://rdf.insee.fr/def/geo#subdivision"
      },
      {
         "source":9,
         "target":8,
         "group":1,
         "label":"subdivision",
         "uri":"http://rdf.insee.fr/def/geo#subdivision"
      },
      {
         "source":9,
         "target":3,
         "group":1,
         "label":"capitale",
         "uri":"http://rdf.insee.fr/def/geo#capitale"
      },
      {
         "source":1,
         "target":9,
         "group":1,
         "label":"subdivisionDe",
         "uri":"http://rdf.insee.fr/def/geo#subdivisionDe"
      },
      {
         "source":1,
         "target":8,
         "group":1,
         "label":"subdivisionDe",
         "uri":"http://rdf.insee.fr/def/geo#subdivisionDe"
      },
      {
         "source":1,
         "target":0,
         "group":1,
         "label":"subdivisionDirecte",
         "uri":"http://rdf.insee.fr/def/geo#subdivisionDirecte"
      },
      {
         "source":1,
         "target":11,
         "group":1,
         "label":"codeRegion",
         "uri":"http://rdf.insee.fr/def/geo#codeRegion"
      },
      {
         "source":1,
         "target":6,
         "group":1,
         "label":"codeINSEE",
         "uri":"http://rdf.insee.fr/def/geo#codeINSEE"
      },
      {
         "source":1,
         "target":4,
         "group":1,
         "label":"nom",
         "uri":"http://rdf.insee.fr/def/geo#nom"
      },
      {
         "source":1,
         "target":3,
         "group":1,
         "label":"prefectureDeRegion",
         "uri":"http://rdf.insee.fr/def/geo#prefectureDeRegion"
      },
      {
         "source":3,
         "target":2,
         "group":1,
         "label":"subdivisionDe",
         "uri":"http://rdf.insee.fr/def/geo#subdivisionDe"
      },
      {
         "source":3,
         "target":12,
         "group":1,
         "label":"subdivisionDe",
         "uri":"http://rdf.insee.fr/def/geo#subdivisionDe"
      },
      {
         "source":3,
         "target":13,
         "group":1,
         "label":"subdivisionDirecte",
         "uri":"http://rdf.insee.fr/def/geo#subdivisionDirecte"
      },
      {
         "source":3,
         "target":14,
         "group":1,
         "label":"codeCommune",
         "uri":"http://rdf.insee.fr/def/geo#codeCommune"
      },
      {
         "source":3,
         "target":6,
         "group":1,
         "label":"codeINSEE",
         "uri":"http://rdf.insee.fr/def/geo#codeINSEE"
      },
      {
         "source":3,
         "target":4,
         "group":1,
         "label":"nom",
         "uri":"http://rdf.insee.fr/def/geo#nom"
      },
      {
         "source":2,
         "target":6,
         "group":1,
         "label":"codeINSEE",
         "uri":"http://rdf.insee.fr/def/geo#codeINSEE"
      },
      {
         "source":2,
         "target":15,
         "group":1,
         "label":"codeArrondissement",
         "uri":"http://rdf.insee.fr/def/geo#codeArrondissement"
      },
      {
         "source":2,
         "target":0,
         "group":1,
         "label":"subdivisionDe",
         "uri":"http://rdf.insee.fr/def/geo#subdivisionDe"
      },
      {
         "source":2,
         "target":3,
         "group":1,
         "label":"subdivisionDirecte",
         "uri":"http://rdf.insee.fr/def/geo#subdivisionDirecte"
      },
      {
         "source":2,
         "target":12,
         "group":1,
         "label":"subdivisionDirecte",
         "uri":"http://rdf.insee.fr/def/geo#subdivisionDirecte"
      },
      {
         "source":2,
         "target":4,
         "group":1,
         "label":"nom",
         "uri":"http://rdf.insee.fr/def/geo#nom"
      },
      {
         "source":2,
         "target":3,
         "group":1,
         "label":"chefLieu",
         "uri":"http://rdf.insee.fr/def/geo#chefLieu"
      },
      {
         "source":8,
         "target":9,
         "group":1,
         "label":"subdivisionDe",
         "uri":"http://rdf.insee.fr/def/geo#subdivisionDe"
      },
      {
         "source":8,
         "target":8,
         "group":1,
         "label":"subdivisionDe",
         "uri":"http://rdf.insee.fr/def/geo#subdivisionDe"
      },
      {
         "source":8,
         "target":9,
         "group":1,
         "label":"subdivision",
         "uri":"http://rdf.insee.fr/def/geo#subdivision"
      },
      {
         "source":8,
         "target":8,
         "group":1,
         "label":"subdivision",
         "uri":"http://rdf.insee.fr/def/geo#subdivision"
      },
      {
         "source":8,
         "target":1,
         "group":1,
         "label":"subdivision",
         "uri":"http://rdf.insee.fr/def/geo#subdivision"
      },
      {
         "source":8,
         "target":7,
         "group":1,
         "label":"subdivision",
         "uri":"http://rdf.insee.fr/def/geo#subdivision"
      },
      {
         "source":16,
         "target":6,
         "group":1,
         "label":"codeINSEE",
         "uri":"http://rdf.insee.fr/def/geo#codeINSEE"
      },
      {
         "source":16,
         "target":17,
         "group":1,
         "label":"codePays",
         "uri":"http://rdf.insee.fr/def/geo#codePays"
      },
      {
         "source":16,
         "target":4,
         "group":1,
         "label":"nom",
         "uri":"http://rdf.insee.fr/def/geo#nom"
      },
      {
         "source":12,
         "target":3,
         "group":1,
         "label":"fractionCantonale",
         "uri":"http://rdf.insee.fr/def/geo#fractionCantonale"
      },
      {
         "source":12,
         "target":3,
         "group":1,
         "label":"chefLieu",
         "uri":"http://rdf.insee.fr/def/geo#chefLieu"
      },
      {
         "source":12,
         "target":18,
         "group":1,
         "label":"codeCanton",
         "uri":"http://rdf.insee.fr/def/geo#codeCanton"
      },
      {
         "source":12,
         "target":13,
         "group":1,
         "label":"chefLieu",
         "uri":"http://rdf.insee.fr/def/geo#chefLieu"
      },
      {
         "source":12,
         "target":4,
         "group":1,
         "label":"nom",
         "uri":"http://rdf.insee.fr/def/geo#nom"
      },
      {
         "source":12,
         "target":2,
         "group":1,
         "label":"subdivisionDe",
         "uri":"http://rdf.insee.fr/def/geo#subdivisionDe"
      },
      {
         "source":12,
         "target":6,
         "group":1,
         "label":"codeINSEE",
         "uri":"http://rdf.insee.fr/def/geo#codeINSEE"
      },
      {
         "source":12,
         "target":3,
         "group":1,
         "label":"subdivisionDirecte",
         "uri":"http://rdf.insee.fr/def/geo#subdivisionDirecte"
      },
      {
         "source":13,
         "target":3,
         "group":1,
         "label":"subdivisionDe",
         "uri":"http://rdf.insee.fr/def/geo#subdivisionDe"
      },
      {
         "source":13,
         "target":6,
         "group":1,
         "label":"codeINSEE",
         "uri":"http://rdf.insee.fr/def/geo#codeINSEE"
      },
      {
         "source":13,
         "target":4,
         "group":1,
         "label":"nom",
         "uri":"http://rdf.insee.fr/def/geo#nom"
      }
   ],
   "groups":[
      "http://www.w3.org/2002/07/owl#",
      "http://rdf.insee.fr/def/geo#"
   ]
}
